final-project
…
Exploration

To start off, I wanted to answer the question of: What is the trend for number of sales of all videogames by year? There has overall been a huge spike in videogame sales starting in the 2000s that continually went up until approximately 2010. The recent drop in sales could possibly be accounted for by the sharp decrease in number of new games being released starting in 2011. (shown in next graph)

total_sales_df <- videoGameData %>%
  group_by(Year_of_Release) %>%
  summarize(sum(Global_Sales))
total_sales_df

## # A tibble: 37 x 2
##    Year_of_Release `sum(Global_Sales)`
##              <int>               <int>
##  1            1980            11380000
##  2            1981            35770000
##  3            1982            28860000
##  4            1983            16790000
##  5            1984            50360000
##  6            1985            53940000
##  7            1986            37070000
##  8            1987            21740000
##  9            1988            47220000
## 10            1989            73450000
## # ... with 27 more rows
…
